{
  "AchievementGrid": {
    "NAMES": [
      "Ерунда",
      "Очищение",
      "Налетай",
      "Пакт",
      "Адреналин",
      "Талант",
      "Мощь",
      "Неприступность",
      "Баррикада",
      "Катализатор",
      "Чума",
      "Ниндзя",
      "Бесконечность",
      "Ты — ничтожество",
      "Идеально",
      "Страж",
      "Призрак",
      "Босс",
      "Автоматон",
      "Коллекционер",
      "Чемпион",
      "Ворон",
      "Фигуры",
      "Пожиратель времени",
      "Рубин",
      "Изумруд",
      "Скрыто"
    ],
    "TEXT": [
      "Выиграть сражение, оставшись с 1 ОЗ.",
      "Иметь не больше 3 карт в руке, колоде и на кладбище вместе взятых.",
      "Выиграть бой, не используя карт Атаки.",
      "Сжечь 20 карт за один бой.",
      "Иметь 9 Энергии в одном ходу боя.",
      "Иметь 10 или более положительных эффектов в одном бою.",
      "Иметь 50 или более Силы в одном бою.",
      "Иметь 99 или более Защиты одном в бою.",
      "Иметь 999 Защиты в одном бою.",
      "Наложить 99 или более Яда на одного врага.",
      "Победить 3 врагов Ядом в одном бою.",
      "Сыграть 10 заточек в одному ходу.",
      "Сыграть 25 карт в одному ходу.",
      "Победить босса в первом ходу.",
      "Победить босса, не получив урона.",
      "Повержен Страж.",
      "Повержен Гексадух.",
      "Повержен Слизнебосс.",
      "Повержен Бронзовый Автоматон.",
      "Повержен Коллекционер.",
      "Повержен Чемпион.",
      "Повержен Пробуждённый.",
      "Повержен Дону и Дека.",
      "Повержен Пожиратель времени.",
      "Пройти игру за Латоносца.",
      "Пройти игру за Безмолвную.",
      "Подробности этого достижения станут доступны после его открытия."
    ]
  },
  "CharStat": {
    "NAMES": [],
    "TEXT": [
      "Общее время игры: ",
      "Всего побед: #y",
      "Всего смертей: #y",
      "Всего этапов пройдено: #y",
      "Всего боссов убито: #y",
      "Всего врагов убито: #y",
      "Всего скормлено кристаллов: #y",
      "Карт найдено: #y",
      "Карт открыто: #y",
      "Реликвий найдено: #y",
      "Реликвий открыто: #y",
      "Наивысший этап: #y",
      "Наивысший счёт: #y",
      "Самая быстрая победа: ",
      "Повержен ",
      ": #gДа NL ",
      ": #rНет NL ",
      "Побед: #y",
      "Смертей: #y",
      "Этапов пройдено: #y",
      "Боссов убито: #y",
      "Врагов убито: #y"
    ]
  },
  "StatsScreen": {
    "NAMES": [
      "#yОбщая #yстатистика",
      "#yДостижения",
      "#rЛатоносец",
      "#gБезмолвная",
      "#bВоробот"
    ],
    "TEXT": [
      "Назад"
    ]
  }
}